zdużaju: 1
pope: 1
Slabost: 1
Załościce: 2
budu: 3
Żabkowskiego: 4
Perekopu: 1
taraz: 1
skoroś: 1
victor: 1
żeś: 24
doniu: 1
nigdzieśmy: 1
Rzplitą: 2
vir: 1
Kurcewiczównę: 2
Myszykiszek: 3
Nuradyn: 1
kropiweński: 1
Pleszowej: 2
upiorzysków: 1
Derłę: 1
perekopskich: 1
peritus: 1
Bardzom: 1
poprzekradali: 1
Cóżem: 2
Barzyńce: 1
kołyby: 1
4: 1
tobi: 2
słabosti: 1
dwukroćstotysięczną: 1
6: 1
bude: 1
zderżymo: 1
Kuźmin: 1
Zaczem: 1
abyście: 2
cei: 2
białocerkwian: 2
Jarmolińce: 1
propter: 2
Muchowieckiego: 3
surdo: 1
szczob: 2
Zadnieprzańców: 1
poręczastym: 1
Choćbym: 1
Sedyte: 1
Zadnieprzańcom: 1
Benedico: 1
Obym: 1
zarizaw: 1
Jahorlik: 4
oddajem: 1
Jeśliś: 2
Perejasławia: 5
Horpyną: 3
Siłaśmy: 2
Weyherowi: 1
Gdziem: 3
wywoływań: 1
Skorośmy: 1
Horpynę: 3
możem: 4
żebyśmy: 2
Eliaszeńko: 5
Perejasławiu: 1
gdym: 6
Zdorowże: 1
Słychanaż: 1
horodyny: 1
Eliaszeńki: 2
zduszon: 1
Jakżeście: 1
Horpyny: 10
sylistryjscy: 3
imparitatem: 1
spasajete: 1
Czołhański: 1
czehryńską: 1
hołubki: 1
pętów: 1
Bryszowskiemu: 1
Pomyłujte: 1
Pigwiszki: 1
Woronczenko: 2
hołubko: 3
Zadnieprzańcy: 1
bagnistsze: 1
oddawam: 2
ridnuju: 1
stojacy: 1
Właśniem: 1
hołowu: 2
Medwiedówki: 1
Warszawi: 1
Znaju: 1
Wierszułła: 7
dawnom: 1
cii: 1
Pułjanie: 1
cóżeś: 2
cij: 1
Zalim: 1
stobnickim: 2
Jarmoliniec: 4
dwir: 1
zhreszy: 1
bezładniejsza: 1
vos: 1
hołubka: 1
wurclowska: 1
Czortowym: 1
Ladawę: 1
Siromachy: 1
Tamem: 1
zaginion: 1
słowy: 1
Jampola: 3
Byleś: 2
Znalazłeśże: 1
toho: 1
Jerlicz: 3
Białogrodzie: 1
Naj: 1
priszow: 1
Jampolu: 8
Kurcewiczami: 1
wiśniowiecczyków: 1
Spasajtes: 3
Pomeż: 2
Borzobohata: 3
Wierszułłowej: 1
ć: 1
Stowejce: 1
opłazuję: 1
Bułyhowie: 1
łycar: 4
rozbudyły: 1
Łęczycanów: 1
howoryty: 1
zzarżał: 1
chociażem: 2
poprzysyłano: 1
Horyłki: 1
Burdabuta: 2
corda: 1
dumbasy: 1
Cóżeś: 2
myśmy: 1
urumbejskich: 1
Satanów: 1
Chrysta: 1
Krzywonosem: 3
kosterzy: 1
byśmy: 10
bahato: 1
czasiech: 1
ceje: 1
lechica: 1
Husiatyna: 1
idzieku: 1
Zerwikaptura: 1
Bryszowski: 4
wyście: 2
Wierszułłowi: 2
Kurcewicze: 5
Mrozowicki: 4
Choroszczyna: 1
chychocząc: 1
Perekop: 1
Zaliby: 1
Braciaszku: 1
Kahamlik: 1
Dońcówna: 5
Teraześ: 1
tymeśmy: 1
Płoskirowie: 3
Bazawłuku: 1
Wierszułłowa: 2
Com: 3
Żebym: 10
Stryjówka: 1
Szenberk: 1
wstrząsły: 1
Burłaj: 28
możeż: 1
chłopci: 1
lublu: 1
Nebabą: 1
Artim: 1
rozmiłowan: 1
szczez: 1
tośmy: 1
gindżała: 1
Myszykiszki: 1
Horyń: 1
bijem: 1
sineńkie: 1
com: 13
Kapui: 1
Ałłacha: 1
Dajcieże: 1
wieziem: 1
usieczon: 3
nej: 1
Kudak: 3
Muchowiecki: 8
Pókim: 1
szczo: 7
Ałłach: 2
Krzywonosie: 5
Beliala: 1
negligenter: 1
Samaś: 1
Moisem: 1
znajet: 1
uszycy: 1
Nestewarze: 1
żołnir: 3
epithalamium: 1
Witamże: 1
Wirnoho: 1
czausa: 1
populi: 1
gdyś: 1
Hospody: 5
substantivo: 1
Hore: 2
ridnyje: 1
Żukówna: 1
spasenie: 1
Cymbrowie: 1
żebyś: 8
Nebaba: 2
Płoskirowem: 2
jasnoho: 1
boimo: 1
żeście: 1
weźmiem: 1
cóżem: 2
jakimżeś: 2
biegąc: 1
Misiac: 1
Ne: 10
Płoskirów: 4
nużby: 2
Studzienicy: 1
Hosp: 1
Bylem: 1
bołyt: 1
Medwiedówkę: 1
zapłacim: 1
Perierów: 1
Tuo: 1
nań: 7
otwartsze: 1
tyżeś: 1
Teutoni: 1
zderżysz: 1
Subagazim: 1
komisary: 2
Piławiec: 5
Krzywonosowego: 1
totaliter: 1
Młodyś: 1
wiśniowiecczykami: 1
Horpynie: 2
reimentarstwa: 1
którzyśmy: 3
jakbyście: 1
chociażeś: 1
zadawaty: 1
krzyżów: 1
veritatis: 1
Spiritus: 1
Zaliżeś: 1
szczastie: 3
Jarmolińcom: 1
zniesławion: 1
Korsuniu: 1
exquisitissimi: 1
brechniu: 1
Parczewie: 1
incomparabilis: 2
postrzelon: 1
coć: 1
moho: 1
mohu: 2
zdradoju: 1
burłajował: 1
wyciągnijcieże: 1
Czetwertyńskoho: 1
Tatarzyskom: 1
rizaty: 2
bladeńkie: 1
iżem: 1
staryj: 1
stopniejąż: 1
zdorowie: 1
Zaćwilichowskiemu: 1
choczemo: 1
Ledwieś: 1
szanowaty: 1
Szczo: 3
alem: 9
iżeśmy: 1
toś: 4
tebe: 1
gdybyście: 1
facto: 1
śpiewajęcy: 1
białocerkiewski: 1
Wołoczyskom: 1
Jakżeś: 1
Grozwajerem: 1
sładko: 1
Dlategom: 1
gdybyś: 3
takem: 3
Możem: 1
Chmila: 1
Duńczewskiego: 1
moju: 1
zanimby: 2
szczoby: 2
Widziałżeś: 1
zestosowane: 1
Korsunia: 2
rozbudyt: 1
Czołhańskiego: 3
Bógże: 1
eius: 1
Żabkowskim: 3
jeszczem: 2
zgliszczów: 1
jegomością: 3
przyszle: 1
minorum: 1
Hruszę: 1
czabańczycy: 2
znużon: 1
czyliś: 1
Zadnieprza: 1
Jeżeliście: 1
zahladaje: 1
bohato: 1
Otom: 1
Zadnieprze: 2
pogromion: 2
exulibus: 1
detyna: 2
prosim: 1
Woronkowa: 1
Żebyście: 1
czyś: 4
silentio: 1
rumelscy: 2
cóżeśmy: 1
Wasiłówce: 2
braciaszki: 3
rodyła: 1
mirhorodzkiego: 2
Łatwiejże: 2
braciaszku: 3
adjectivum: 1
Józefata: 1
hirszy: 1
Uk: 1
Zadnieprzu: 2
będziem: 12
tameście: 1
Jakbyś: 1
Żyjeli: 1
zderżyt: 1
kniazićwnę: 1
urągań: 1
Szarogrodu: 1
Urumbałowie: 1
większyś: 2
Deum: 2
Ożygowcom: 1
kiedym: 1
Bychowca: 1
łubniańskim: 1
przyiść: 1
naczyniła: 1
łubniańskie: 2
ledwieśmy: 1
boćwinkarz: 1
salvatorem: 1
Jove: 1
tuś: 1
legitime: 1
toporowieckich: 1
darmośmy: 1
Waładynki: 8
Białocerkwianie: 1
Waładynka: 1
omine: 1
Czyśmy: 1
Jeżelim: 1
Omelniczkiem: 1
czyby: 3
Duńczewskiemu: 2
Tośmy: 2
półobietnicę: 1
laudamus: 1
jakąm: 1
pysaw: 1
Jakobyś: 1
jaż: 1
Kumejkami: 1
obran: 2
Zacharowi: 2
świstnęła: 2
aleś: 4
spasajtes: 3
Brusiłowa: 1
Machnówką: 2
sineńka: 1
sameś: 1
sartor: 1
Studenki: 1
vates: 1
iżeś: 1
Tycho: 1
Byłażby: 1
więcem: 2
Warteś: 1
zderżą: 1
znaje: 1
Fedoreńka: 1
Bohowitynianka: 1
gdybym: 7
Karolowe: 1
Roztworowski: 2
przeciem: 1
bobyśmy: 1
Najgorszyś: 1
Dałżeby: 1
znaju: 9
dowhija: 1
łycara: 2
Krzeczowski: 1
Tyś: 1
pane: 5
łycari: 1
pobliższych: 2
Kahamlikiem: 3
mitiorem: 1
Niepotrzebnieś: 1
Byłżebyś: 1
prędkoż: 1
jegoj: 1
Mozyrze: 1
Ałe: 1
macieże: 2
detynu: 1
Kurcewiczówna: 4
buwało: 1
Zaśby: 1
Zaćwilichowskiego: 7
Zarudzie: 1
Krótkom: 1
dumbasie: 1
Chwastowie: 1
Niemałom: 1
tyś: 4
gdybyśmy: 3
buwały: 1
Kałusiku: 1
jakośmy: 1
Kurcewiczówno: 1
detyny: 1
liberis: 2
Kurcewiczówny: 4
mękim: 1
mołojcow: 1
chybabym: 1
Eliaszeńce: 1
nomine: 1
carzowi: 1
Pozowskiego: 1
któregom: 1
obum: 1
newdiaczna: 1
pewnoż: 1
nomini: 1
Kołyb: 1
czegoście: 1
Tatarzęta: 1
Patris: 1
securitatem: 2
jucze: 1
obstrugiwano: 1
Otoś: 2
Reimentarówki: 1
najprzebrańszy: 1
Owsiwuju: 2
bożyj: 1
Trudnoż: 1
Nuradyna: 2
Zinków: 1
Widziałże: 1
huszczańskim: 1
domieszywając: 1
dyskursa: 1
długoż: 1
Uszycę: 1
zasławczycy: 1
punctum: 1
Synopę: 1
fabula: 1
Machnówki: 2
pomyłuj: 4
Bałtupie: 1
wik: 1
Czortowy: 3
Kuszlowe: 1
Kuszlowi: 1
Czegożeś: 1
hroszy: 1
niczymże: 1
Hołody: 6
Wowk: 1
czyście: 1
abyśmy: 7
pornął: 1
zasięgniem: 1
hroszi: 2
korolewiczu: 1
suponujeszże: 1
Zerwikapturów: 1
pyśmo: 2
stulta: 1
nadeszle: 1
didy: 1
pókim: 4
Zaliś: 1
lude: 2
tyranno: 1
Urezać: 1
Umyślnieśmy: 1
Jeżeliś: 2
hodi: 1
ubroczon: 1
Pigłowskich: 1
sancti: 1
serdcie: 1
Światołdyczów: 1
culpa: 1
białocerkiewszczanie: 1
Kuszla: 10
Zachar: 10
budziackich: 1
nimem: 3
Jampolowi: 1
Psikiszki: 1
Regowskiego: 5
Zaśbym: 1
błysło: 1
melankolii: 1
Skwirę: 1
Bohunaśmy: 1
Trzcianną: 1
tedybym: 1
iżeście: 1
boitsia: 1
huszczańskiego: 1
każem: 1
wyszłe: 1
ab: 3
wyna: 1
żeśmy: 9
neszczastnyje: 1
Jarmolińcami: 1
Weyherze: 1
Uszycy: 1
Bude: 2
Krzywonosową: 1
Zołotaja: 1
choćbyś: 3
Matczynie: 2
Bahato: 1
weń: 3
Czerkasowie: 1
karwowski: 2
Wyście: 1
Zerwikapturem: 5
brukołaki: 2
Carboni: 1
Czołhańskim: 3
publicis: 1
illustrissimus: 1
Dziedziałę: 2
pohybnu: 1
Girej: 2
Milszyś: 1
równąż: 1
czołowik: 1
Płoskirowa: 2
sed: 1
tożem: 1
Żeś: 1
Wiśniowieckiz: 1
coście: 3
carza: 1
smiju: 1
Lachiw: 6
grubianitas: 1
Did: 2
Mozyr: 2
Waładynką: 3
bezpieczen: 1
fatigatus: 1
Białogródki: 1
servatorem: 1
każete: 1
Niepotrzebniem: 1
Waładynkę: 1
Jołtuszkowem: 1
Zaćwilichowskim: 2
Pozowski: 1
Chomorem: 3
cheruwym: 1
dwukroćstotysięcznej: 1
zadałżebym: 1
did: 5
poenam: 1
Wurcla: 4
Chmielnickomu: 1
małyś: 1
Łubniów: 1
jampolskimi: 1
Wielkąśmy: 1
gospodze: 1
animalia: 1
semeńskie: 1
worożycha: 3
Krzywonosowi: 1
Piławcach: 2
Kijowu: 1
Nuradynowi: 1
Cieciszowskiego: 1
kińca: 1
Satanowa: 1
Jahorlika: 6
ledwom: 1
aeternam: 1
Gnieznę: 1
ei: 1
przedziobie: 1
worożychy: 4
jakeś: 7
horyłku: 1
Latyczów: 1
Miałżeby: 1
prospectus: 2
Myłeńka: 1
Bohunowymi: 1
efferatam: 1
Żeśmy: 1
lubosti: 1
świtło: 1
Subagazi: 10
Naokołopalca: 1
jeślić: 1
Gdybym: 2
wiśniowiecczycy: 1
aquas: 1
modlitew: 2
dumbasów: 1
Rosołowcami: 1
Jahorliku: 2
Zołotonoszy: 1
mówiłżem: 1
Lachiwczykam: 1
Burłajowe: 2
hadka: 1
Okrutniem: 2
hadko: 6
skądżeś: 1
paniw: 1
congressus: 1
Żabkowski: 6
czumbułowi: 1
Wyhowskiego: 1
Urumbałów: 1
hajdawerków: 1
śwityt: 1
klątew: 1
Jestżeś: 1
Hur: 1
ekswojskowy: 1
pustszy: 1
zołotyj: 1
Załościc: 1
jakoi: 1
ostorożno: 1
reimentaruje: 1
pobit: 3
Burłajowy: 4
Volenti: 1
gloriam: 1
Jarmolince: 1
zajutro: 1
jużeś: 1
Idźcieże: 1
klinu: 1
universo: 1
którymiśmy: 1
Amurat: 2
tamquam: 1
natos: 1
Wże: 1
Dziedziała: 8
hur: 2
Suffczyński: 3
Gniezny: 2
dlategoś: 1
wieczora: 9
utinam: 1
Ledwiem: 3
Kurdłuk: 1
Aleście: 1
desiderat: 1
Skoropadzka: 1
obstupuit: 1
czołgnąć: 1
utikło: 1
Gałdze: 1
Huncla: 1
loci: 2
Burłajowej: 1
kalniczanie: 1
Denhofem: 2
Oleksicz: 1
czegom: 1
Czetwertyński: 2
czterdziestotysięczną: 1
Borzobohatej: 1
Abyście: 1
Domine: 2
Carboniego: 1
tysiąców: 2
Szenberka: 1
Dziedziały: 1
Czehrynie: 12
choćbym: 5
Ożygowce: 1
Trzymajcieże: 1
Dudara: 1
ktom: 2
wijna: 1
Regowski: 9
Cieciszowski: 4
więceśmy: 1
joho: 2
budziackimi: 1
Hołowu: 1
Zasławczykami: 1
Wachlówka: 1
Pohrebyszcz: 1
Szarogrodzie: 1
mentem: 2
wielcem: 1
bośmy: 3
Zabit: 1
pohybelże: 1
porozluźniać: 1
hore: 1
Kurcewiczowską: 1
smerdiaczoi: 1
przedsiębierzem: 1
Meockich: 1
ruszym: 1
Dońcowy: 1
Lacham: 1
Felsztyna: 1
dajem: 1
bucianem: 1
maw: 1
ko: 11
Wierszułł: 25
Syruciany: 1
wsiów: 3
zestosowanych: 1
wiśniowiecczykach: 1
fui: 1
niżby: 1
mene: 2
Hładki: 1
Kretowice: 1
tużyła: 1
Wurcel: 2
orihlask: 1
Zhreszy: 1
takeśmy: 1
Wołoczyskach: 3
widdasz: 1
Jużem: 3
Bohunowych: 5
usty: 1
Dopierom: 1
Pigłowskim: 1
jomu: 1
pułkownikiw: 1
Preczystuju: 1
biłoruczka: 1
Reipublicae: 1
imainację: 1
Kudaku: 1
będzież: 1
mowczyte: 1
Piławcami: 6
toporowiecką: 1
ne: 23
Wszyscyśmy: 1
regimenta: 3
czabańczuków: 1
Zbraż: 1
Pleszowy: 1
Bohunowym: 3
mea: 1
zmorzon: 1
Zaledwiem: 1
Jampolem: 6
siedzim: 1
odczasu: 1
Bohunową: 2
żinku: 1
Weyher: 6
illo: 1
sylistryjskich: 3
bondarówną: 1
robyt: 1
Jakem: 2
Jużeśmy: 2
Grozwajera: 1
Korsuniem: 1
prosyła: 2
Tatarowie: 2
Piławce: 6
Swiatuju: 1
nobis: 2
Byleśmy: 3
cośmy: 1
mietle: 1
prostyła: 1
wymarnował: 1
Chwałaż: 1
nakaptował: 1
Wymizerowanyś: 1
Ilużeś: 1
przynosim: 1
Muchowieckim: 1
jakbym: 2
Subagaziemu: 2
Wiśniowca: 3
gdyśmy: 4
Sieniutówna: 1
Kurcewiczowie: 1
Łubniach: 9
Albożem: 1
Bohunam: 1
Burłaju: 1
Stowejki: 1
magnatus: 1
zawszeć: 3
hawrani: 2
bucianów: 1
czybyś: 1
Wiśniowcu: 1
Konasewicz: 1
11: 1
13: 1
Jaże: 1
16: 1
19: 1
niedruha: 1
tedyby: 3
Nieśmiertelnąś: 1
pościgło: 1
servitute: 1
perwsza: 1
pozażerali: 1
Serdytes: 1
Maszże: 1
Cieciszowskim: 2
falsus: 1
Urum: 2
trosków: 1
sub: 2
wołmi: 1
24: 1
26: 2
urezać: 5
Ciapuciany: 1
Regowskim: 3
myślim: 1
dopierośmy: 1
potworu: 2
słabnął: 1
Żebyśmy: 2
stultum: 1
armisticium: 2
stultus: 1
któreśmy: 2
boć: 3
ubyw: 1
Zaliśmy: 1
Wurclem: 1
zabit: 9
Burłajem: 3
dysymiluje: 1
Wyhowski: 1
kładając: 1
Burłaja: 27
Aksaka: 1
pobraw: 1
Rzplitej: 5
Kisielowu: 2
Gałgi: 2
utrudzon: 1
Bohunowe: 2
Gdzieby: 1
Bohunowa: 2
ony: 1
uciecze: 2
Gałga: 1
Spyt: 2
zabudu: 1
Jerlicza: 1
buw: 2
astrachańców: 1
puellae: 1
Gwozdowej: 1
kiedyśmy: 2
Owsiwuj: 2
Boś: 1
perebudu: 1
oreł: 1
uk: 1
suffragiis: 2
służym: 2
Korf: 2
diło: 1
wszyystkich: 1
morozi: 1
powinnymi: 1
któryśmy: 1
Kuszlem: 2
luboś: 1
boś: 6
Znajdziem: 1
wszyscyśmy: 1
dziesięćkrotnie: 1
Korsuń: 3
pojedziem: 1
saniorem: 1
Świstnęły: 1
interrexa: 1
zawichrzeń: 1
zawrzasły: 1
Zerwikaptur: 2
Mikoły: 7
quo: 1
jużeśmy: 2
kochańczyk: 1
otoczon: 1
zjedziem: 1
chybaby: 6
Aleć: 1
byleś: 3
abym: 5
Bahaćko: 1
poropiały: 1
Chlebanówki: 1
Firlejowe: 1
Sołodkowcom: 1
tegom: 3
Grozwajer: 4
jakeście: 1
bestiam: 1
żebym: 5
bym: 34
Czyś: 3
Braciaż: 1
krucy: 3
stem: 1
czemuty: 1
zażartszą: 1
periculosa: 1
znajdziem: 1
Zabuskiemu: 1
gdziem: 1
horodynom: 1
dajte: 1
jakżeś: 1
ażem: 3
Trypolu: 1
Hołodego: 1
Krzeczowskiego: 2
obrachowywujący: 1
żem: 25
Dziedziale: 1
jakeśmy: 3
choczu: 1
Pójdziem: 1
Kislar: 1
mieniał: 1
trastia: 1
wysileń: 1
Uszki: 1
Jahorlikiem: 1
Nazareński: 4
Chciałżebyś: 1
sokalskim: 1
nauczu: 1
Aleś: 2
Rozumiałżeś: 1
Jakośmy: 1
Werniaków: 1
Jeślim: 1
Jampol: 8
excepto: 3
oczki: 3
Bracławowi: 1
zduriw: 1
Będziem: 2
wyciągniem: 1
waładynieckich: 1
Zawrzasły: 1
żołmirom: 1
siromachy: 1
Jarmolińcach: 4
Eliaszeńkiem: 1
siromacha: 1
Burłajową: 1
arcypieski: 1
Bohunowego: 1
Albożeś: 1
Sprawedływe: 1
ovo: 2
Czerwinci: 1
contentus: 1
armuje: 1
spero: 1
toboju: 1
zatrzasły: 1
rozproszon: 1
obscurus: 1
Rosullah: 1
Pereat: 3
Kuszel: 24
budet: 1
tylkośmy: 1
vobiscum: 1
Kurcewiczom: 1
niechbym: 1
Chlebanówkę: 1
vulpes: 1
prisław: 1
widdaw: 1
boleścim: 1
exules: 1
1651: 1
sławu: 5
Wierszulle: 1
Zagramże: 1
Kupin: 1
teper: 1
wika: 1
neszczastływoj: 1
dlań: 2
Burłajowych: 4
rumelskich: 4
Wierszułłowymi: 1
baczu: 1
Pane: 1
Byśmy: 1
carzu: 1
jeho: 2
musztuluków: 1
Sierotam: 1
liberatorem: 1
Bohunowej: 3
Dawnoż: 1
korolewną: 1
białoruczkom: 1
Sieńczy: 2
żeć: 4
jakem: 8
Firlejową: 1
bylem: 1
oczów: 1
Regowskiemu: 2
aleśmy: 4
Subagaziego: 3
Czerkasi: 1
Dawnośmy: 1
abyś: 2
Lude: 1
Krzetowski: 7
mynuła: 1
Diakujem: 1
Jużże: 1
ażeśmy: 2
Roztworowskiego: 1
publicum: 1
pylnowaty: 1
Bieczyński: 1
pomożite: 1
fatigati: 1
nawoływań: 1
mutatus: 1
Pułjana: 2
Bryszowskiego: 2
Perejasław: 1
jeżelim: 2
byś: 9
stobnicki: 1
rodzicielów: 1
argumenta: 1
jużem: 1
Mrowe: 1
Neczaj: 1
tegoś: 1
astuta: 1
Anusinej: 1
korol: 5
zatlone: 1
dziadowskku: 1
Skądżeś: 1
zaszeleściała: 1
Rzplita: 3
Sołonicą: 1
nemine: 3
Vir: 1
