2:0.0018656716417910447
3:0.0021141649048625794
4:0.002207505518763797
5:0.0070921985815602835
6:0.013333333333333334
8:0.004201680672268907
14:0.0014705882352941176
15:0.0022522522522522522
17:0.0033222591362126247
18:0.005847953216374269
19:0.0020242914979757085
20:0.0030303030303030303
34:0.006211180124223602
35:0.006369426751592357
54:0.0028169014084507044
55:0.0016806722689075631
