0:0.0037313432835820895
1:0.004
2:0.0022026431718061676
3:0.0021413276231263384
4:0.002793296089385475
5:0.008695652173913044
6:0.011627906976744186
7:0.007518796992481203
8:0.005208333333333333
9:0.008928571428571428
10:0.002183406113537118
11:0.006535947712418301
12:0.008695652173913044
14:0.002066115702479339
15:0.003003003003003003
16:0.0029940119760479044
17:0.0029239766081871343
18:0.004484304932735426
19:0.0016155088852988692
21:0.005235602094240838
22:0.0070921985815602835
23:0.004098360655737705
24:0.010101010101010102
26:0.0017985611510791368
27:0.0072992700729927005
28:0.007142857142857143
29:0.004098360655737705
30:0.0025380710659898475
31:0.008950154829687345
32:0.0021231422505307855
36:0.0069812342539615265
37:0.010526315789473684
38:0.005747126436781609
40:0.0035087719298245615
41:0.008403361344537815
42:0.0023584905660377358
43:0.0020876826722338203
45:0.00980392156862745
46:0.006535947712418301
47:0.009009009009009009
48:0.016202498698594484
49:0.010309278350515464
50:0.0033003300330033004
51:0.011235955056179775
52:0.008403361344537815
53:0.003367003367003367
54:0.002785515320334262
55:0.0016025641025641025
56:8.445945945945946E-4
57:0.0029239766081871343
59:0.0014792899408284023
60:0.0033541917891557757
61:0.007747407540610202
62:0.0037536758346306868
