0.0013717421124828531: naraz
0.0014124293785310734: pierwsze
0.001422475106685633: nazwisko
0.0014245014245014246: wrzask
0.0014265335235378032: rzeź
0.001430615164520744: zakazać
0.0014326647564469914: hajda
0.001440922190201729: woda
0.001451378809869376: morze
0.0014577259475218659: nagrodzić
0.00145985401459854: okop
0.0014641288433382138: milczenie
0.0014684287812041115: rozpocząć
0.0014705882352941176: podjazd
0.0014727540500736377: łza
0.0014749262536873156: wojownik
0.0014771048744460858: wicher
0.0014792899408284023: czerń
0.0014814814814814814: kilkanaście
0.001483679525222552: rozbudzić
0.0014858841010401188: długo
0.001488095238095238: jegomościny
0.0014903129657228018: wyć
0.0014925373134328358: braknąć
0.0014947683109118087: błoto
0.0014970059880239522: lud
0.0014992503748125937: szukać
0.0015015015015015015: późny
0.0015037593984962407: nadzieja
0.0015060240963855422: postanowić
0.0015082956259426848: wstrzymać
0.0015105740181268882: słuchać
0.0015128593040847202: silny
0.0015151515151515152: pokój
0.0015174506828528073: ow
0.001519756838905775: kat
0.0015220700152207: uciec
0.001524390243902439: wpaść
0.0015267175572519084: boży
0.0015290519877675841: zabić
0.0015313935681470138: słyszeć
0.0015337423312883436: czapka
0.0015360983102918587: czynić
0.0015384615384615385: powiadać
0.0015408320493066256: pierś
0.0015432098765432098: witowska
0.0015455950540958269: zborów
0.0015479876160990713: słowa
0.0015503875968992248: tysiące
0.0015527950310559005: pułkownik
0.0015552099533437014: wziąć
0.001557632398753894: namiot
0.0015600624024961: stały
0.0015625: późno
0.001564945226917058: pytać
0.001567398119122257: radość
0.0015698587127158557: wódz
0.0015748031496062992: zacząć
0.0015772870662460567: czego
0.001579778830963665: książęcy
0.0015822784810126582: powiedzieć
0.001584786053882726: układ
0.0015873015873015873: patrzyć
0.001589825119236884: pierwszy
0.0015923566878980893: jazda
0.001594896331738437: chan
0.001597444089456869: rzeczpospolita
0.0016: panna
0.0016025641025641025: niebo
0.0016051364365971107: czela
0.001607717041800643: kazać
0.0016129032258064516: jeno
0.0016155088852988692: ludzie
0.0016181229773462784: zaraz
0.0016207455429497568: potem
0.0016233766233766235: zaś
0.0016260162601626016: koń
0.0016286644951140066: tłum
0.0016313213703099511: mieć
0.0016339869281045752: sandomierski
0.0016366612111292963: pole
0.001639344262295082: kniaziówna
0.0016420361247947454: ręka
0.001644736842105263: twarz
0.0016474464579901153: wielki
0.0016501650165016502: głos
0.001652892561983471: droga
0.0016556291390728477: noc
0.001658374792703151: iść
0.001669449081803005: miał
0.0016722408026755853: orda
0.0016778523489932886: bitwa
0.001692047377326565: chwila
0.001694915254237288: wołodyjowski
0.0017006802721088435: rycerz
0.0017035775127768314: tabor
0.0017094017094017094: kozacki
0.001718213058419244: ksiądz
0.0017211703958691911: głowa
0.0017241379310344827: chmielnicki
0.0017301038062283738: wojsko
0.001736111111111111: miąć
0.0017421602787456446: wiedzieć
0.0017482517482517483: sam
0.0017574692442882249: dzień
0.0017605633802816902: bóg
0.0017667844522968198: rzędzian
0.0017730496453900709: zbaraż
0.0017761989342806395: rzec
0.0018248175182481751: go
0.0018281535648994515: król
0.001834862385321101: bohun
0.001838235294117647: książę
0.001841620626151013: chcieć
0.0018587360594795538: jegomość
0.0020161290322580645: zagłoba
0.002127659574468085: skrzetuski
