0.0029850746268656717: wieczór
0.0029940119760479044: parol
0.0030120481927710845: żal
0.003048780487804878: lepsze
0.0030581039755351682: niepięknie
0.003067484662576687: zamek
0.003076923076923077: smutek
0.0030864197530864196: początek
0.0030959752321981426: brateńko
0.003105590062111801: długo
0.003115264797507788: jaworski
0.003125: rodziciel
0.003134796238244514: wziąć
0.0031446540880503146: nagroda
0.0031545741324921135: prędko
0.0031645569620253164: dziaduś
0.0031746031746031746: pierwszy
0.0031847133757961785: ukryć
0.003194888178913738: ława
0.003205128205128205: móc
0.003215434083601286: powiedzieć
0.0032258064516129032: łza
0.003236245954692557: ciężko
0.003246753246753247: szlachcic
0.003257328990228013: pojechać
0.0032679738562091504: droga
0.003278688524590164: dalej
0.003289473684210526: longinus
0.0033003300330033004: głos
0.0033112582781456954: zbój
0.0033222591362126247: włodawa
0.0033333333333333335: późno
0.0033444816053511705: począć
0.003355704697986577: chcieć
0.003367003367003367: ręka
0.0033783783783783786: rycerz
0.003389830508474576: skrzetuski
0.003401360544217687: czas
0.0034129692832764505: widzieć
0.003424657534246575: panna
0.0034965034965034965: dać
0.0035087719298245615: tedy
0.0035211267605633804: pytać
0.0035335689045936395: pachołek
0.0035460992907801418: miał
0.0035842293906810036: głowa
0.0036101083032490976: jechać
0.0036496350364963502: sam
0.003663003663003663: myśleć
0.003703703703703704: waćpan
0.0037593984962406013: musieć
0.0038022813688212928: powiadać
0.003816793893129771: wiedzieć
0.0038314176245210726: bohun
0.003861003861003861: go
0.004149377593360996: mieć
0.004201680672268907: wołodyjowski
0.004273504273504274: jegomość
0.004310344827586207: rzędzian
0.004405286343612335: rzec
0.004464285714285714: mówić
0.004608294930875576: miąć
