0.007246376811594203: ni
0.007633587786259542: podbipięta
0.007692307692307693: myśleć
0.007936507936507936: wołodyjowski
0.008: puszczać
0.008064516129032258: chmiel
0.008130081300813009: go
0.00819672131147541: mówić
0.008264462809917356: żołnierz
0.008333333333333333: stanąć
0.008403361344537815: waćpan
0.00847457627118644: chcieć
0.008547008547008548: zagłoba
0.008620689655172414: noc
0.008695652173913044: język
0.008771929824561403: obóz
0.008849557522123894: nieprzyjaciel
0.009009009009009009: móc
0.00909090909090909: ludzie
0.009174311926605505: potęga
0.009259259259259259: dzień
0.009433962264150943: mołojec
0.009523809523809525: swój
0.009708737864077669: sam
0.00980392156862745: raz
0.009900990099009901: jarema
0.01: podjazd
0.01020408163265306: książę
0.010752688172043012: skrzetuski
