0.005291005291005291: mordować
0.00546448087431694: słuchać
0.005494505494505495: mnogo
0.00558659217877095: stary
0.0056179775280898875: ataman
0.005649717514124294: pop
0.005681818181818182: głos
0.005714285714285714: huk
0.005747126436781609: lepiej
0.005780346820809248: trup
0.005813953488372093: sprowadzić
0.005847953216374269: przecie
0.0058823529411764705: bratać
0.005952380952380952: wówczas
0.005988023952095809: mieć
0.006024096385542169: wół
0.006060606060606061: dębowy
0.006097560975609756: kole
0.006134969325153374: wstyd
0.006172839506172839: patrzyć
0.006211180124223602: koła
0.00625: czekać
0.006289308176100629: lach
0.006329113924050633: czas
0.006369426751592357: dać
0.0064516129032258064: woda
0.006578947368421052: twarz
0.006711409395973154: mówić
0.006756756756756757: chwila
0.006802721088435374: sam
0.00684931506849315: go
0.006944444444444444: głowa
0.006993006993006993: kozak
0.007142857142857143: kniaziówna
0.007352941176470588: pokazać
0.007462686567164179: wiedzieć
0.007575757575757576: rzec
0.007874015748031496: widzieć
0.008: chcieć
0.008064516129032258: bohun
0.008130081300813009: miąć
