0.0019120458891013384: żona
0.001984126984126984: morze
0.00199203187250996: wysoce
0.001996007984031936: fiat
0.0020161290322580645: in
0.00202020202020202: ksiądz
0.0020242914979757085: sterczeć
0.0020325203252032522: domówić
0.002066115702479339: litość
0.002079002079002079: rozpoznawać
0.0020833333333333333: jar
0.0020876826722338203: przebaczenie
0.0020920502092050207: siedzieć
0.0020964360587002098: przyjść
0.0021008403361344537: koński
0.002105263157894737: bóg
0.002109704641350211: dna
0.0021141649048625794: żołnierz
0.00211864406779661: wróg
0.0021231422505307855: potem
0.002127659574468085: miejsce
0.0021321961620469083: zamek
0.002136752136752137: milczeć
0.0021413276231263384: lud
0.002145922746781116: starzec
0.002150537634408602: las
0.0021551724137931034: szukać
0.0021598272138228943: dziecko
0.0021645021645021645: niedola
0.0021691973969631237: namiestnik
0.002173913043478261: czym
0.002178649237472767: długo
0.002183406113537118: pytać
0.002188183807439825: wojna
0.0021929824561403508: jeść
0.002197802197802198: dalej
0.0022026431718061676: jeniec
0.002207505518763797: ordyniec
0.0022123893805309734: mieć
0.0022172949002217295: rynek
0.0022222222222222222: wieś
0.0022271714922048997: godzina
0.002232142857142857: pójść
0.0022371364653243847: ludzki
0.002242152466367713: pierś
0.0022471910112359553: obóz
0.0022522522522522522: przeciw
0.0022624434389140274: bez
0.0022675736961451248: własny
0.0022727272727272726: dusza
0.002277904328018223: kazać
0.00228310502283105: klęska
0.002288329519450801: musieć
0.0022935779816513763: kozacki
0.0022988505747126436: bunt
0.002320185614849188: twarz
0.002325581395348837: ziemia
0.002336448598130841: miał
0.00234192037470726: siła
0.002347417840375587: mówić
0.002352941176470588: dzień
0.002364066193853428: chcieć
0.002369668246445498: swój
0.0023752969121140144: straszny
0.002380952380952381: głowa
0.0023923444976076554: droga
0.002398081534772182: ludzie
0.0024271844660194173: rzeczpospolita
0.0024509803921568627: chwila
0.0024630541871921183: oko
0.0024691358024691358: sam
0.0025: tatar
0.002512562814070352: hetman
0.0025188916876574307: ręka
0.002544529262086514: wszystek
0.0025906735751295338: książę
0.0026455026455026454: móc
0.002881844380403458: chmielnicki
0.003003003003003003: skrzetuski
