0.007194244604316547: lekki
0.007518796992481203: bagno
0.007575757575757576: ow
0.007633587786259542: błoto
0.007751937984496124: czernihów
0.0078125: przechodzić
0.007874015748031496: podbipięta
0.007936507936507936: potem
0.008: żołnierz
0.008064516129032258: go
0.008130081300813009: zagłoba
0.00819672131147541: ludzie
0.008264462809917356: iść
0.008333333333333333: móc
0.008403361344537815: począć
0.00847457627118644: widzieć
0.008547008547008548: mówić
0.008620689655172414: przecie
0.008695652173913044: noc
0.008771929824561403: chwila
0.008928571428571428: wojsko
0.009009009009009009: woda
0.00909090909090909: rzec
0.009174311926605505: wojska
0.009259259259259259: choć
0.009345794392523364: sam
0.009708737864077669: głowa
0.009900990099009901: rycerz
0.01020408163265306: skrzetuski
0.01098901098901099: książę
0.011235955056179775: chcieć
