0.009433962264150943: otwierać
0.009615384615384616: kukać
0.009708737864077669: zdrowy
0.00980392156862745: prędko
0.009900990099009901: step
0.01: dalej
0.010101010101010102: przyjść
0.01020408163265306: mówić
0.010309278350515464: go
0.010416666666666666: widzieć
0.010526315789473684: móc
0.010638297872340425: myśleć
0.010752688172043012: książę
0.010869565217391304: przyjechać
0.01098901098901099: mieć
0.011111111111111112: swój
0.011363636363636364: koń
0.011494252873563218: chwila
0.011627906976744186: skrzetuski
0.011904761904761904: wiedzieć
0.012048192771084338: sam
0.012345679012345678: ręka
0.0125: miąć
0.013333333333333334: helena
0.013888888888888888: namiestnik
0.014705882352941176: rzec
