0.0012836970474967907: wszelki
0.001451378809869376: duma
0.0014534883720930232: wzajemnie
0.0014619883040935672: pobyt
0.0014684287812041115: dojrzeć
0.0014749262536873156: boży
0.0014771048744460858: jutro
0.0014814814814814814: pochód
0.001483679525222552: zamieszanie
0.0014858841010401188: chłop
0.001488095238095238: głębia
0.0014903129657228018: długi
0.0014925373134328358: słychać
0.0014947683109118087: pójść
0.0014970059880239522: ow
0.0014992503748125937: pułkownik
0.0015015015015015015: powiedzieć
0.0015037593984962407: tętent
0.0015060240963855422: czapka
0.0015082956259426848: otaczać
0.0015105740181268882: złamać
0.0015128593040847202: tysiące
0.0015151515151515152: wąż
0.0015174506828528073: strzała
0.001519756838905775: płomień
0.0015220700152207: jazda
0.001524390243902439: koński
0.0015267175572519084: stawać
0.0015290519877675841: trup
0.0015313935681470138: patrzyć
0.0015337423312883436: zaraz
0.0015360983102918587: błonie
0.0015384615384615385: czerń
0.0015408320493066256: chmiel
0.0015432098765432098: rozlec
0.0015455950540958269: żołnierz
0.0015479876160990713: połączyć
0.0015503875968992248: klęska
0.0015527950310559005: szereg
0.0015552099533437014: rozpocząć
0.001557632398753894: umieć
0.0015600624024961: niebo
0.0015625: usta
0.001564945226917058: mieć
0.001567398119122257: husarz
0.0015698587127158557: ludzie
0.0015723270440251573: potem
0.0015748031496062992: opór
0.0015772870662460567: jeździec
0.001579778830963665: zaporożec
0.0015822784810126582: nagle
0.001584786053882726: oddział
0.0015873015873015873: długo
0.001589825119236884: wiedzieć
0.0015923566878980893: step
0.001597444089456869: wolność
0.0016: stać
0.0016025641025641025: zaś
0.0016051364365971107: dusza
0.001607717041800643: czas
0.001610305958132045: hetmanić
0.0016129032258064516: pierś
0.0016155088852988692: iść
0.0016181229773462784: dzień
0.0016207455429497568: bunt
0.0016233766233766235: kurzeń
0.0016260162601626016: miejsce
0.0016313213703099511: choć
0.0016339869281045752: atak
0.0016366612111292963: chcieć
0.001639344262295082: boj
0.0016420361247947454: koronny
0.001644736842105263: czarniecki
0.0016501650165016502: siły
0.0016556291390728477: głowa
0.001658374792703151: bez
0.0016611295681063123: ruszyć
0.001669449081803005: ręka
0.0016750418760469012: pierwszy
0.0016778523489932886: bić
0.0016806722689075631: wielki
0.0016835016835016834: jeniec
0.0016863406408094434: rzec
0.0016891891891891893: bej
0.001692047377326565: coraz
0.001694915254237288: musieć
0.001697792869269949: twarz
0.0017064846416382253: swój
0.0017094017094017094: rynek
0.0017152658662092624: pomoc
0.001718213058419244: kozacki
0.0017271157167530224: tatar
0.0017391304347826088: go
0.0017482517482517483: potocki
0.0017513134851138354: sam
0.0017667844522968198: kozak
0.0017730496453900709: wszystek
0.0017825311942959: namiestnik
0.0017889087656529517: siła
0.0018148820326678765: hetman
0.0018450184501845018: obóz
0.0018484288354898336: chwila
0.001876172607879925: chorągiew
0.0018832391713747645: bitwa
0.0018867924528301887: móc
0.002074688796680498: skrzetuski
0.0021321961620469083: chmielnicki
