0.004807692307692308: ów
0.0048543689320388345: lud
0.004878048780487805: dopiero
0.004901960784313725: ni
0.0049261083743842365: litość
0.0049504950495049506: maszkiewicz
0.004975124378109453: spod
0.005: spotkać
0.005025125628140704: zamiast
0.005050505050505051: wedle
0.005076142131979695: stać
0.00510204081632653: wysłać
0.005128205128205128: puścić
0.005154639175257732: pytać
0.005208333333333333: podjazd
0.005235602094240838: skrzetuski
0.005263157894736842: szlachta
0.005291005291005291: waść
0.005319148936170213: mieć
0.0053475935828877: wziąć
0.005376344086021506: bunt
0.005434782608695652: rzeczpospolita
0.00546448087431694: droga
0.005681818181818182: mówić
0.005714285714285714: zaś
0.005747126436781609: głowa
0.005780346820809248: kazać
0.005813953488372093: czym
0.005847953216374269: wojska
0.0058823529411764705: dniepr
0.005917159763313609: go
0.005952380952380952: pułkownik
0.005988023952095809: chcieć
0.006024096385542169: móc
0.006134969325153374: rzec
0.006211180124223602: sam
0.00625: chmielnicki
0.006329113924050633: książęcy
0.008130081300813009: książę
