0.0064516129032258064: syn
0.006622516556291391: grodzicki
0.006666666666666667: rzeka
0.006711409395973154: fala
0.006756756756756757: pokryć
0.006802721088435374: zbyt
0.00684931506849315: kola
0.006896551724137931: dym
0.006944444444444444: odpowiadać
0.006993006993006993: go
0.007042253521126761: ciągnąć
0.0070921985815602835: kroki
0.007142857142857143: zdawać
0.007194244604316547: móc
0.007246376811594203: stać
0.0072992700729927005: drugi
0.007352941176470588: kilkanaście
0.007407407407407408: dawać
0.007462686567164179: atak
0.007518796992481203: tłum
0.007575757575757576: zbliżyć
0.007633587786259542: sam
0.007692307692307693: brzeg
0.007751937984496124: rzec
0.007874015748031496: wyspa
0.007936507936507936: czółn
0.008064516129032258: wachmistrz
0.008130081300813009: tatar
0.008403361344537815: woda
0.00847457627118644: chwila
0.008695652173913044: czajka
0.008928571428571428: skrzetuski
0.009174311926605505: semen
0.009345794392523364: namiestnik
