0.003952569169960474: oblecieć
0.00398406374501992: poznać
0.004: ciągle
0.004032258064516129: oj
0.004048582995951417: krzywonosy
0.0040650406504065045: lach
0.004081632653061225: żyw
0.004098360655737705: wesele
0.00411522633744856: obiecać
0.004132231404958678: patrzyć
0.004149377593360996: długo
0.004166666666666667: jazda
0.0041841004184100415: dziękować
0.004201680672268907: wojewoda
0.004219409282700422: koło
0.00423728813559322: szlachecki
0.00425531914893617: maja
0.004273504273504274: zabić
0.004291845493562232: prawić
0.004310344827586207: tabor
0.004329004329004329: hetman
0.004347826086956522: dzień
0.004366812227074236: zbój
0.0043859649122807015: przyjechać
0.004405286343612335: chorągiew
0.004424778761061947: rodziciel
0.0044444444444444444: kazać
0.004464285714285714: musieć
0.004484304932735426: przyjść
0.0045045045045045045: miał
0.004524886877828055: rzec
0.004545454545454545: potem
0.0045662100456621: sam
0.0045871559633027525: szlachcic
0.004608294930875576: rzędzian
0.004629629629629629: ręka
0.004694835680751174: skrzetuski
0.004739336492890996: widzieć
0.004761904761904762: zaraz
0.004784688995215311: mieć
0.0048543689320388345: móc
0.004878048780487805: tedy
0.0049261083743842365: książę
0.0049504950495049506: bóg
0.005025125628140704: myśleć
0.00558659217877095: go
0.0056179775280898875: mówić
0.006097560975609756: miąć
0.006622516556291391: jegomość
